g1	genomes/GCF_000195955.2_ASM19595v2_genomic.fna
g2	genomes/GCF_002447975.1_ASM244797v1_genomic_ambtoa.fna
g3	genomes/GCF_000572125.1_ASM57212v1_genomic.fna
g4	genomes/GCF_001870145.1_ASM187014v1_genomic.fna
